#DataThief /Users/jonbutterworth/Desktop/matrix8tev.png Monday 22-Apr-2019 4:22:37 pm
11.9959, 4.3908, 1.0083, 1.0083
39.2101, 16.0006, 3.0232, 2.5197
58.3575, 25.5893, 3.5295, 3.7811
75.3841, 126.1578, 12.0949, 12.0949
85.3717, 223.9496, 17.6378, 17.6378
95.4646, 210.8505, 14.1086, 14.1086
105.1614, 173.0527, 12.093, 12.093
115.2045, 136.7671, 7.5575, 7.5577
125.4354, 108.0426, 7.0535, 7.5575
134.9909, 84.358, 5.0372, 5.0372
145.2445, 66.2185, 5.0395, 5.0395
154.9931, 52.6151, 4.031, 4.031
164.9188, 41.5321, 2.5192, 2.0153
175.0235, 33.9775, 3.0195, 3.0195
181.3598, 28.9409, 2.5198, 2.5198
195.068, 21.8925, 2.0154, 2.0154
215.4706, 16.8646, 1.5114, 1.5114
234.6703, 10.8277, 2.0155, 2.0156
260.6038, 7.5551, 0.8939
285.0261, 5.2248, 0.6444
325.7344, 3.0047, 0.3001
374.5848, 1.5551, 0.0782
449.2352, 0.7241, 0.0371
551.0341, 0.266, 0.0388
650.13, 0.1175, 3.1524e-3
1018.063, 0.0121, 9.2204e-4
