>>>>>>>>>>>>>>>>>>>>>>>>>>>>>>>>>>>>>>>>>>>>>>>>>>>>>>>>>>>>>>>>>>>>>>>>>>>>>>
>>>> Toolkit for HEP Event Generation - ThePEG f0c7c9e4efc0 (default) <<<<<<<<
>>>> Fri Nov 15 16:29:32 2019                                             <<<<
<<<<<<<<<<<<<<<<<<<<<<<<<<<<<<<<<<<<<<<<<<<<<<<<<<<<<<<<<<<<<<<<<<<<<<<<<<<<<<

>> Herwig b7689adb1ad6 (default) / ThePEG f0c7c9e4efc0 (default)

==============================================================================
Statistics for event handler 'EventHandler':
                                       generated    number of    Cross-section
                                          events     attempts             (nb)
==============================================================================
Total (from attempted events): including vetoed events           16.83(5)e-03
==============================================================================
Total (from generated events):            30000        30001     16.83(5)e-03
Events carry unit weights.
==============================================================================
Per matrix element breakdown:
MEbbarg2Y1bbar                                15           15         8(2)e-06
MEcbarg2Y1cbar                                26           26        15(3)e-06
MEsbarg2Y1sbar                                36           36        20(3)e-06
MEubarg2Y1ubar                                79           79        44(5)e-06
MEdbarg2Y1dbar                                75           75        42(5)e-06
MEdubar2Y1W-                                  36           36        20(3)e-06
MEddbar2Y1g                                 3589         3589      2.01(3)e-03
MEddbar2Y1gamma                               14           14         8(2)e-06
MEddbar2Y1Z0                                  18           18        10(2)e-06
MEddbar2Y1Y1                                   0            0                0
MEdg2Y1d                                     442          442      0.25(1)e-03
MEuubar2Y1g                                 7112         7113      3.99(4)e-03
MEuubar2Y1gamma                              112          112        63(6)e-06
MEuubar2Y1Z0                                  31           31        17(3)e-06
MEuubar2Y1Y1                                   0            0                0
MEudbar2Y1W+                                 111          111        62(6)e-06
MEug2Y1u                                    1261         1261      0.71(2)e-03
MEscbar2Y1W-                                   1            1       0.6(6)e-06
MEssbar2Y1g                                  124          124        70(6)e-06
MEssbar2Y1gamma                                0            0                0
MEssbar2Y1Z0                                   0            0                0
MEssbar2Y1Y1                                   0            0                0
MEsg2Y1s                                      43           43        24(4)e-06
MEccbar2Y1g                                   79           79        44(5)e-06
MEccbar2Y1gamma                                2            2       1.1(8)e-06
MEccbar2Y1Z0                                   0            0                0
MEccbar2Y1Y1                                   0            0                0
MEcsbar2Y1W+                                   0            0                0
MEcg2Y1c                                      23           23        13(3)e-06
MEbbbar2Y1g                                   16           16         9(2)e-06
MEbbbar2Y1gamma                                0            0                0
MEbbbar2Y1Z0                                   0            0                0
MEbbbar2Y1H                                    0            0                0
MEbbbar2Y1Y1                                   0            0                0
MEbg2Y1b                                      13           13         7(2)e-06
MEbbbar2Y12XmXm                                1            1       0.6(6)e-06
MEbbbar2Y12ttbar                              11           11         6(2)e-06
MEbbbar2Y12bbbar                              12           12         7(2)e-06
MEbbbar2Y12ssbar                              15           15         8(2)e-06
MEbbbar2Y12ccbar                               9            9         5(2)e-06
MEbbbar2Y12ddbar                              11           11         6(2)e-06
MEbbbar2Y12uubar                               7            7         4(1)e-06
MEssbar2Y12XmXm                                2            2       1.1(8)e-06
MEssbar2Y12ttbar                              40           40        22(4)e-06
MEssbar2Y12bbbar                              38           38        21(3)e-06
MEssbar2Y12ssbar                              33           33        19(3)e-06
MEssbar2Y12ccbar                              42           42        24(4)e-06
MEssbar2Y12ddbar                              42           42        24(4)e-06
MEssbar2Y12uubar                              32           32        18(3)e-06
MEccbar2Y12XmXm                                3            3         2(1)e-06
MEccbar2Y12ttbar                              18           18        10(2)e-06
MEccbar2Y12bbbar                              27           27        15(3)e-06
MEccbar2Y12ssbar                              31           31        17(3)e-06
MEccbar2Y12ccbar                              22           22        12(3)e-06
MEccbar2Y12ddbar                              16           16         9(2)e-06
MEccbar2Y12uubar                              21           21        12(3)e-06
MEddbar2Y12XmXm                               59           59        33(4)e-06
MEddbar2Y12ttbar                             861          861      0.48(2)e-03
MEddbar2Y12bbbar                             896          896      0.50(2)e-03
MEddbar2Y12ssbar                             945          945      0.53(2)e-03
MEddbar2Y12ccbar                             876          876      0.49(2)e-03
MEddbar2Y12ddbar                             950          950      0.53(2)e-03
MEddbar2Y12uubar                             920          920      0.52(2)e-03
MEuubar2Y12XmXm                              139          139        78(7)e-06
MEuubar2Y12ttbar                            1660         1660      0.93(2)e-03
MEuubar2Y12bbbar                            1753         1753      0.98(2)e-03
MEuubar2Y12ssbar                            1738         1738      0.97(2)e-03
MEuubar2Y12ccbar                            1851         1851      1.04(2)e-03
MEuubar2Y12ddbar                            1821         1821      1.02(2)e-03
MEuubar2Y12uubar                            1840         1840      1.03(2)e-03
==============================================================================
Per parton extractor breakdown:
PPExtractor                                30000        30001     16.83(5)e-03
==============================================================================
Per incoming partons breakdown:
d dbar                                      4647         4647      2.61(4)e-03
d ubar                                        18           18        10(2)e-06
d g                                          216          216     0.121(8)e-03
dbar d                                      4481         4481      2.51(4)e-03
dbar u                                        59           59        33(4)e-06
dbar g                                        38           38        21(3)e-06
ubar d                                        18           18        10(2)e-06
ubar u                                      9027         9027      5.06(5)e-03
ubar g                                        41           41        23(4)e-06
u dbar                                        52           52        29(4)e-06
u ubar                                      9030         9031      5.06(5)e-03
u g                                          617          617      0.35(1)e-03
c cbar                                       114          114        64(6)e-06
c sbar                                         0            0                0
c g                                            8            8         4(2)e-06
cbar c                                       105          105        59(6)e-06
cbar s                                         0            0                0
cbar g                                        16           16         9(2)e-06
sbar c                                         0            0                0
sbar s                                       171          171        96(7)e-06
sbar g                                        13           13         7(2)e-06
s cbar                                         1            1       0.6(6)e-06
s sbar                                       182          182     0.102(8)e-03
s g                                           21           21        12(3)e-06
b bbar                                        41           41        23(4)e-06
b g                                            7            7         4(1)e-06
bbar b                                        41           41        23(4)e-06
bbar g                                         5            5         3(1)e-06
g d                                          226          226     0.127(8)e-03
g dbar                                        37           37        21(3)e-06
g ubar                                        38           38        21(3)e-06
g u                                          644          644      0.36(1)e-03
g c                                           15           15         8(2)e-06
g cbar                                        10           10         6(2)e-06
g sbar                                        23           23        13(3)e-06
g s                                           22           22        12(3)e-06
g b                                            6            6         3(1)e-06
g bbar                                        10           10         6(2)e-06
==============================================================================
Detailed breakdown:
(PPExtractor) bbar b (MEbbbar2Y1g b,bbar->Y1,g) 
                                               7            7         4(1)e-06
(PPExtractor) bbar b (MEbbbar2Y1gamma b,bbar->Y1,gamma) 
                                               0            0                0
(PPExtractor) bbar b (MEbbbar2Y1Z0 b,bbar->Y1,Z0) 
                                               0            0                0
(PPExtractor) bbar b (MEbbbar2Y1H b,bbar->Y1,H) 
                                               0            0                0
(PPExtractor) bbar b (MEbbbar2Y1Y1 b,bbar->Y1,Y1) 
                                               0            0                0
(PPExtractor) bbar b (MEbbbar2Y12XmXm b,bbar->Xm,Xm) 
                                               0            0                0
(PPExtractor) bbar b (MEbbbar2Y12ttbar b,bbar->t,tbar) 
                                               6            6         3(1)e-06
(PPExtractor) bbar b (MEbbbar2Y12bbbar b,bbar->b,bbar) 
                                               8            8         4(2)e-06
(PPExtractor) bbar b (MEbbbar2Y12ssbar b,bbar->s,sbar) 
                                               8            8         4(2)e-06
(PPExtractor) bbar b (MEbbbar2Y12ccbar b,bbar->c,cbar) 
                                               4            4         2(1)e-06
(PPExtractor) bbar b (MEbbbar2Y12ddbar b,bbar->d,dbar) 
                                               5            5         3(1)e-06
(PPExtractor) bbar b (MEbbbar2Y12uubar b,bbar->u,ubar) 
                                               3            3         2(1)e-06
(PPExtractor) bbar g (MEbbarg2Y1bbar bbar,g->Y1,bbar) 
                                               5            5         3(1)e-06
(PPExtractor) cbar s (MEscbar2Y1W- s,cbar->Y1,W-) 
                                               0            0                0
(PPExtractor) cbar c (MEccbar2Y1g c,cbar->Y1,g) 
                                              47           47        26(4)e-06
(PPExtractor) cbar c (MEccbar2Y1gamma c,cbar->Y1,gamma) 
                                               0            0                0
(PPExtractor) cbar c (MEccbar2Y1Z0 c,cbar->Y1,Z0) 
                                               0            0                0
(PPExtractor) cbar c (MEccbar2Y1Y1 c,cbar->Y1,Y1) 
                                               0            0                0
(PPExtractor) cbar c (MEccbar2Y12XmXm c,cbar->Xm,Xm) 
                                               1            1       0.6(6)e-06
(PPExtractor) cbar c (MEccbar2Y12ttbar c,cbar->t,tbar) 
                                              10           10         6(2)e-06
(PPExtractor) cbar c (MEccbar2Y12bbbar c,cbar->b,bbar) 
                                              11           11         6(2)e-06
(PPExtractor) cbar c (MEccbar2Y12ssbar c,cbar->s,sbar) 
                                              11           11         6(2)e-06
(PPExtractor) cbar c (MEccbar2Y12ccbar c,cbar->c,cbar) 
                                              10           10         6(2)e-06
(PPExtractor) cbar c (MEccbar2Y12ddbar c,cbar->d,dbar) 
                                               8            8         4(2)e-06
(PPExtractor) cbar c (MEccbar2Y12uubar c,cbar->u,ubar) 
                                               7            7         4(1)e-06
(PPExtractor) cbar g (MEcbarg2Y1cbar cbar,g->Y1,cbar) 
                                              16           16         9(2)e-06
(PPExtractor) sbar s (MEssbar2Y1g s,sbar->Y1,g) 
                                              60           60        34(4)e-06
(PPExtractor) sbar s (MEssbar2Y1gamma s,sbar->Y1,gamma) 
                                               0            0                0
(PPExtractor) sbar s (MEssbar2Y1Z0 s,sbar->Y1,Z0) 
                                               0            0                0
(PPExtractor) sbar s (MEssbar2Y1Y1 s,sbar->Y1,Y1) 
                                               0            0                0
(PPExtractor) sbar s (MEssbar2Y12XmXm s,sbar->Xm,Xm) 
                                               1            1       0.6(6)e-06
(PPExtractor) sbar s (MEssbar2Y12ttbar s,sbar->t,tbar) 
                                              16           16         9(2)e-06
(PPExtractor) sbar s (MEssbar2Y12bbbar s,sbar->b,bbar) 
                                              17           17       9.5(2)e-06
(PPExtractor) sbar s (MEssbar2Y12ssbar s,sbar->s,sbar) 
                                              21           21        12(3)e-06
(PPExtractor) sbar s (MEssbar2Y12ccbar s,sbar->c,cbar) 
                                              20           20        11(3)e-06
(PPExtractor) sbar s (MEssbar2Y12ddbar s,sbar->d,dbar) 
                                              18           18        10(2)e-06
(PPExtractor) sbar s (MEssbar2Y12uubar s,sbar->u,ubar) 
                                              18           18        10(2)e-06
(PPExtractor) sbar c (MEcsbar2Y1W+ c,sbar->Y1,W+) 
                                               0            0                0
(PPExtractor) sbar g (MEsbarg2Y1sbar sbar,g->Y1,sbar) 
                                              13           13         7(2)e-06
(PPExtractor) ubar d (MEdubar2Y1W- d,ubar->Y1,W-) 
                                              18           18        10(2)e-06
(PPExtractor) ubar u (MEuubar2Y1g u,ubar->Y1,g) 
                                            3565         3565      2.00(3)e-03
(PPExtractor) ubar u (MEuubar2Y1gamma u,ubar->Y1,gamma) 
                                              61           61        34(4)e-06
(PPExtractor) ubar u (MEuubar2Y1Z0 u,ubar->Y1,Z0) 
                                              13           13         7(2)e-06
(PPExtractor) ubar u (MEuubar2Y1Y1 u,ubar->Y1,Y1) 
                                               0            0                0
(PPExtractor) ubar u (MEuubar2Y12XmXm u,ubar->Xm,Xm) 
                                              61           61        34(4)e-06
(PPExtractor) ubar u (MEuubar2Y12ttbar u,ubar->t,tbar) 
                                             843          843      0.47(2)e-03
(PPExtractor) ubar u (MEuubar2Y12bbbar u,ubar->b,bbar) 
                                             892          892      0.50(2)e-03
(PPExtractor) ubar u (MEuubar2Y12ssbar u,ubar->s,sbar) 
                                             887          887      0.50(2)e-03
(PPExtractor) ubar u (MEuubar2Y12ccbar u,ubar->c,cbar) 
                                             899          899      0.50(2)e-03
(PPExtractor) ubar u (MEuubar2Y12ddbar u,ubar->d,dbar) 
                                             875          875      0.49(2)e-03
(PPExtractor) ubar u (MEuubar2Y12uubar u,ubar->u,ubar) 
                                             931          931      0.52(2)e-03
(PPExtractor) ubar g (MEubarg2Y1ubar ubar,g->Y1,ubar) 
                                              41           41        23(4)e-06
(PPExtractor) dbar d (MEddbar2Y1g d,dbar->Y1,g) 
                                            1745         1745      0.98(2)e-03
(PPExtractor) dbar d (MEddbar2Y1gamma d,dbar->Y1,gamma) 
                                               5            5         3(1)e-06
(PPExtractor) dbar d (MEddbar2Y1Z0 d,dbar->Y1,Z0) 
                                              13           13         7(2)e-06
(PPExtractor) dbar d (MEddbar2Y1Y1 d,dbar->Y1,Y1) 
                                               0            0                0
(PPExtractor) dbar d (MEddbar2Y12XmXm d,dbar->Xm,Xm) 
                                              27           27        15(3)e-06
(PPExtractor) dbar d (MEddbar2Y12ttbar d,dbar->t,tbar) 
                                             446          446      0.25(1)e-03
(PPExtractor) dbar d (MEddbar2Y12bbbar d,dbar->b,bbar) 
                                             420          420      0.24(1)e-03
(PPExtractor) dbar d (MEddbar2Y12ssbar d,dbar->s,sbar) 
                                             454          454      0.25(1)e-03
(PPExtractor) dbar d (MEddbar2Y12ccbar d,dbar->c,cbar) 
                                             408          408      0.23(1)e-03
(PPExtractor) dbar d (MEddbar2Y12ddbar d,dbar->d,dbar) 
                                             500          500      0.28(1)e-03
(PPExtractor) dbar d (MEddbar2Y12uubar d,dbar->u,ubar) 
                                             463          463      0.26(1)e-03
(PPExtractor) dbar u (MEudbar2Y1W+ u,dbar->Y1,W+) 
                                              59           59        33(4)e-06
(PPExtractor) dbar g (MEdbarg2Y1dbar dbar,g->Y1,dbar) 
                                              38           38        21(3)e-06
(PPExtractor) d ubar (MEdubar2Y1W- d,ubar->Y1,W-) 
                                              18           18        10(2)e-06
(PPExtractor) d dbar (MEddbar2Y1g d,dbar->Y1,g) 
                                            1844         1844      1.03(2)e-03
(PPExtractor) d dbar (MEddbar2Y1gamma d,dbar->Y1,gamma) 
                                               9            9         5(2)e-06
(PPExtractor) d dbar (MEddbar2Y1Z0 d,dbar->Y1,Z0) 
                                               5            5         3(1)e-06
(PPExtractor) d dbar (MEddbar2Y1Y1 d,dbar->Y1,Y1) 
                                               0            0                0
(PPExtractor) d dbar (MEddbar2Y12XmXm d,dbar->Xm,Xm) 
                                              32           32        18(3)e-06
(PPExtractor) d dbar (MEddbar2Y12ttbar d,dbar->t,tbar) 
                                             415          415      0.23(1)e-03
(PPExtractor) d dbar (MEddbar2Y12bbbar d,dbar->b,bbar) 
                                             476          476      0.27(1)e-03
(PPExtractor) d dbar (MEddbar2Y12ssbar d,dbar->s,sbar) 
                                             491          491      0.28(1)e-03
(PPExtractor) d dbar (MEddbar2Y12ccbar d,dbar->c,cbar) 
                                             468          468      0.26(1)e-03
(PPExtractor) d dbar (MEddbar2Y12ddbar d,dbar->d,dbar) 
                                             450          450      0.25(1)e-03
(PPExtractor) d dbar (MEddbar2Y12uubar d,dbar->u,ubar) 
                                             457          457      0.26(1)e-03
(PPExtractor) d g (MEdg2Y1d d,g->Y1,d) 
                                             216          216     0.121(8)e-03
(PPExtractor) u ubar (MEuubar2Y1g u,ubar->Y1,g) 
                                            3547         3548      1.99(3)e-03
(PPExtractor) u ubar (MEuubar2Y1gamma u,ubar->Y1,gamma) 
                                              51           51        29(4)e-06
(PPExtractor) u ubar (MEuubar2Y1Z0 u,ubar->Y1,Z0) 
                                              18           18        10(2)e-06
(PPExtractor) u ubar (MEuubar2Y1Y1 u,ubar->Y1,Y1) 
                                               0            0                0
(PPExtractor) u ubar (MEuubar2Y12XmXm u,ubar->Xm,Xm) 
                                              78           78        44(5)e-06
(PPExtractor) u ubar (MEuubar2Y12ttbar u,ubar->t,tbar) 
                                             817          817      0.46(2)e-03
(PPExtractor) u ubar (MEuubar2Y12bbbar u,ubar->b,bbar) 
                                             861          861      0.48(2)e-03
(PPExtractor) u ubar (MEuubar2Y12ssbar u,ubar->s,sbar) 
                                             851          851      0.48(2)e-03
(PPExtractor) u ubar (MEuubar2Y12ccbar u,ubar->c,cbar) 
                                             952          952      0.53(2)e-03
(PPExtractor) u ubar (MEuubar2Y12ddbar u,ubar->d,dbar) 
                                             946          946      0.53(2)e-03
(PPExtractor) u ubar (MEuubar2Y12uubar u,ubar->u,ubar) 
                                             909          909      0.51(2)e-03
(PPExtractor) u dbar (MEudbar2Y1W+ u,dbar->Y1,W+) 
                                              52           52        29(4)e-06
(PPExtractor) u g (MEug2Y1u u,g->Y1,u) 
                                             617          617      0.35(1)e-03
(PPExtractor) s cbar (MEscbar2Y1W- s,cbar->Y1,W-) 
                                               1            1       0.6(6)e-06
(PPExtractor) s sbar (MEssbar2Y1g s,sbar->Y1,g) 
                                              64           64        36(4)e-06
(PPExtractor) s sbar (MEssbar2Y1gamma s,sbar->Y1,gamma) 
                                               0            0                0
(PPExtractor) s sbar (MEssbar2Y1Z0 s,sbar->Y1,Z0) 
                                               0            0                0
(PPExtractor) s sbar (MEssbar2Y1Y1 s,sbar->Y1,Y1) 
                                               0            0                0
(PPExtractor) s sbar (MEssbar2Y12XmXm s,sbar->Xm,Xm) 
                                               1            1       0.6(6)e-06
(PPExtractor) s sbar (MEssbar2Y12ttbar s,sbar->t,tbar) 
                                              24           24        13(3)e-06
(PPExtractor) s sbar (MEssbar2Y12bbbar s,sbar->b,bbar) 
                                              21           21        12(3)e-06
(PPExtractor) s sbar (MEssbar2Y12ssbar s,sbar->s,sbar) 
                                              12           12         7(2)e-06
(PPExtractor) s sbar (MEssbar2Y12ccbar s,sbar->c,cbar) 
                                              22           22        12(3)e-06
(PPExtractor) s sbar (MEssbar2Y12ddbar s,sbar->d,dbar) 
                                              24           24        13(3)e-06
(PPExtractor) s sbar (MEssbar2Y12uubar s,sbar->u,ubar) 
                                              14           14         8(2)e-06
(PPExtractor) s g (MEsg2Y1s s,g->Y1,s) 
                                              21           21        12(3)e-06
(PPExtractor) c cbar (MEccbar2Y1g c,cbar->Y1,g) 
                                              32           32        18(3)e-06
(PPExtractor) c cbar (MEccbar2Y1gamma c,cbar->Y1,gamma) 
                                               2            2       1.1(8)e-06
(PPExtractor) c cbar (MEccbar2Y1Z0 c,cbar->Y1,Z0) 
                                               0            0                0
(PPExtractor) c cbar (MEccbar2Y1Y1 c,cbar->Y1,Y1) 
                                               0            0                0
(PPExtractor) c cbar (MEccbar2Y12XmXm c,cbar->Xm,Xm) 
                                               2            2       1.1(8)e-06
(PPExtractor) c cbar (MEccbar2Y12ttbar c,cbar->t,tbar) 
                                               8            8         4(2)e-06
(PPExtractor) c cbar (MEccbar2Y12bbbar c,cbar->b,bbar) 
                                              16           16         9(2)e-06
(PPExtractor) c cbar (MEccbar2Y12ssbar c,cbar->s,sbar) 
                                              20           20        11(3)e-06
(PPExtractor) c cbar (MEccbar2Y12ccbar c,cbar->c,cbar) 
                                              12           12         7(2)e-06
(PPExtractor) c cbar (MEccbar2Y12ddbar c,cbar->d,dbar) 
                                               8            8         4(2)e-06
(PPExtractor) c cbar (MEccbar2Y12uubar c,cbar->u,ubar) 
                                              14           14         8(2)e-06
(PPExtractor) c sbar (MEcsbar2Y1W+ c,sbar->Y1,W+) 
                                               0            0                0
(PPExtractor) c g (MEcg2Y1c c,g->Y1,c) 
                                               8            8         4(2)e-06
(PPExtractor) b bbar (MEbbbar2Y1g b,bbar->Y1,g) 
                                               9            9         5(2)e-06
(PPExtractor) b bbar (MEbbbar2Y1gamma b,bbar->Y1,gamma) 
                                               0            0                0
(PPExtractor) b bbar (MEbbbar2Y1Z0 b,bbar->Y1,Z0) 
                                               0            0                0
(PPExtractor) b bbar (MEbbbar2Y1H b,bbar->Y1,H) 
                                               0            0                0
(PPExtractor) b bbar (MEbbbar2Y1Y1 b,bbar->Y1,Y1) 
                                               0            0                0
(PPExtractor) b bbar (MEbbbar2Y12XmXm b,bbar->Xm,Xm) 
                                               1            1       0.6(6)e-06
(PPExtractor) b bbar (MEbbbar2Y12ttbar b,bbar->t,tbar) 
                                               5            5         3(1)e-06
(PPExtractor) b bbar (MEbbbar2Y12bbbar b,bbar->b,bbar) 
                                               4            4         2(1)e-06
(PPExtractor) b bbar (MEbbbar2Y12ssbar b,bbar->s,sbar) 
                                               7            7         4(1)e-06
(PPExtractor) b bbar (MEbbbar2Y12ccbar b,bbar->c,cbar) 
                                               5            5         3(1)e-06
(PPExtractor) b bbar (MEbbbar2Y12ddbar b,bbar->d,dbar) 
                                               6            6         3(1)e-06
(PPExtractor) b bbar (MEbbbar2Y12uubar b,bbar->u,ubar) 
                                               4            4         2(1)e-06
(PPExtractor) b g (MEbg2Y1b b,g->Y1,b) 
                                               7            7         4(1)e-06
(PPExtractor) g bbar (MEbbarg2Y1bbar bbar,g->Y1,bbar) 
                                              10           10         6(2)e-06
(PPExtractor) g cbar (MEcbarg2Y1cbar cbar,g->Y1,cbar) 
                                              10           10         6(2)e-06
(PPExtractor) g sbar (MEsbarg2Y1sbar sbar,g->Y1,sbar) 
                                              23           23        13(3)e-06
(PPExtractor) g ubar (MEubarg2Y1ubar ubar,g->Y1,ubar) 
                                              38           38        21(3)e-06
(PPExtractor) g dbar (MEdbarg2Y1dbar dbar,g->Y1,dbar) 
                                              37           37        21(3)e-06
(PPExtractor) g d (MEdg2Y1d d,g->Y1,d) 
                                             226          226     0.127(8)e-03
(PPExtractor) g u (MEug2Y1u u,g->Y1,u) 
                                             644          644      0.36(1)e-03
(PPExtractor) g s (MEsg2Y1s s,g->Y1,s) 
                                              22           22        12(3)e-06
(PPExtractor) g c (MEcg2Y1c c,g->Y1,c) 
                                              15           15         8(2)e-06
(PPExtractor) g b (MEbg2Y1b b,g->Y1,b) 
                                               6            6         3(1)e-06
==============================================================================
